
boss3.png
size: 396,396
format: RGBA8888
filter: Linear,Linear
repeat: none
bavai
  rotate: true
  xy: 57, 20
  size: 50, 84
  orig: 50, 84
  offset: 0, 0
  index: -1
bavai22
  rotate: true
  xy: 243, 9
  size: 24, 75
  orig: 24, 75
  offset: 0, 0
  index: -1
chandau
  rotate: false
  xy: 229, 198
  size: 80, 29
  orig: 80, 29
  offset: 0, 0
  index: -1
chann
  rotate: true
  xy: 317, 273
  size: 121, 56
  orig: 121, 56
  offset: 0, 0
  index: -1
chann222
  rotate: true
  xy: 125, 185
  size: 42, 102
  orig: 42, 102
  offset: 0, 0
  index: -1
dauu
  rotate: false
  xy: 2, 185
  size: 121, 209
  orig: 121, 209
  offset: 0, 0
  index: -1
khoangdau
  rotate: false
  xy: 125, 229
  size: 185, 38
  orig: 185, 38
  offset: 0, 0
  index: -1
l1
  rotate: false
  xy: 260, 111
  size: 80, 85
  orig: 80, 85
  offset: 0, 0
  index: -1
madau
  rotate: false
  xy: 2, 8
  size: 53, 175
  orig: 53, 175
  offset: 0, 0
  index: -1
napdau
  rotate: false
  xy: 125, 269
  size: 190, 125
  orig: 190, 125
  offset: 0, 0
  index: -1
napdau22
  rotate: false
  xy: 317, 236
  size: 41, 35
  orig: 41, 35
  offset: 0, 0
  index: -1
pindau
  rotate: true
  xy: 57, 72
  size: 111, 93
  orig: 111, 93
  offset: 0, 0
  index: -1
tayquay
  rotate: false
  xy: 143, 14
  size: 98, 47
  orig: 98, 47
  offset: 0, 0
  index: -1
vang1
  rotate: true
  xy: 320, 6
  size: 27, 21
  orig: 27, 21
  offset: 0, 0
  index: -1
vang2
  rotate: true
  xy: 57, 2
  size: 16, 14
  orig: 16, 14
  offset: 0, 0
  index: -1
vangx
  rotate: true
  xy: 152, 63
  size: 120, 52
  orig: 120, 52
  offset: 0, 0
  index: -1
vangx2
  rotate: true
  xy: 206, 63
  size: 120, 52
  orig: 120, 52
  offset: 0, 0
  index: -1
xich1
  rotate: false
  xy: 360, 233
  size: 34, 38
  orig: 34, 38
  offset: 0, 0
  index: -1
xichdau2
  rotate: false
  xy: 260, 35
  size: 78, 74
  orig: 78, 74
  offset: 0, 0
  index: -1
