
z33.png
size: 80,80
format: RGBA8888
filter: Linear,Linear
repeat: none
Ellipse 1 copy 3
  rotate: false
  xy: 2, 37
  size: 38, 41
  orig: 38, 41
  offset: 0, 0
  index: -1
Layer 69 copy
  rotate: true
  xy: 2, 2
  size: 11, 21
  orig: 11, 21
  offset: 0, 0
  index: -1
Layer 73 copy
  rotate: false
  xy: 46, 22
  size: 32, 25
  orig: 32, 25
  offset: 0, 0
  index: -1
Layer 74 copy
  rotate: false
  xy: 42, 49
  size: 36, 29
  orig: 36, 29
  offset: 0, 0
  index: -1
Layer 83 copy
  rotate: false
  xy: 2, 15
  size: 42, 20
  orig: 42, 20
  offset: 0, 0
  index: -1
Layer 96 copy
  rotate: true
  xy: 25, 2
  size: 11, 12
  orig: 11, 12
  offset: 0, 0
  index: -1
Layer 98
  rotate: false
  xy: 46, 5
  size: 15, 15
  orig: 15, 15
  offset: 0, 0
  index: -1
