
4_gship.png
size: 200,200
format: RGBA8888
filter: Linear,Linear
repeat: none
3_1
  rotate: false
  xy: 162, 7
  size: 31, 31
  orig: 31, 31
  offset: 0, 0
  index: -1
Layer 53
  rotate: false
  xy: 59, 31
  size: 53, 75
  orig: 53, 75
  offset: 0, 0
  index: -1
Layer 54
  rotate: false
  xy: 2, 31
  size: 55, 75
  orig: 55, 75
  offset: 0, 0
  index: -1
Layer 56
  rotate: false
  xy: 159, 126
  size: 30, 72
  orig: 30, 72
  offset: 0, 0
  index: -1
Layer 57
  rotate: true
  xy: 114, 10
  size: 28, 46
  orig: 28, 46
  offset: 0, 0
  index: -1
Layer 97
  rotate: false
  xy: 2, 108
  size: 155, 90
  orig: 155, 90
  offset: 0, 0
  index: -1
Layer 99
  rotate: false
  xy: 114, 40
  size: 34, 66
  orig: 34, 66
  offset: 0, 0
  index: -1
Layer 99 copy
  rotate: false
  xy: 150, 40
  size: 34, 66
  orig: 34, 66
  offset: 0, 0
  index: -1
m
  rotate: true
  xy: 159, 113
  size: 11, 28
  orig: 11, 28
  offset: 0, 0
  index: -1
xxx
  rotate: false
  xy: 2, 2
  size: 27, 27
  orig: 27, 27
  offset: 0, 0
  index: -1
