{
"skeleton": { "hash": "srwkANtSwX+JuVSMeu6VafLw48E", "spine": "3.7.94", "width": 44.15, "height": 48.89, "images": "", "audio": "" },
"bones": [
	{ "name": "root" },
	{ "name": "scale", "parent": "root", "scaleX": 0.088, "scaleY": 0.088 },
	{ "name": "body", "parent": "scale", "y": 115.93 },
	{ "name": "head", "parent": "body", "y": 67.24 },
	{ "name": "beard", "parent": "head", "x": 21.47, "y": 86.07 },
	{ "name": "beard2", "parent": "head", "x": -25.85, "y": 86.07, "scaleX": -1 },
	{ "name": "wing", "parent": "body", "x": 20.81, "y": -124.88 },
	{ "name": "wing2", "parent": "body", "x": -22.37, "y": -124.88, "scaleX": -1 }
],
"slots": [
	{ "name": "wing", "bone": "wing", "attachment": "wing" },
	{ "name": "wing2", "bone": "wing2", "attachment": "wing" },
	{ "name": "Layer 768 copy 50", "bone": "head", "attachment": "Layer 768 copy 50" },
	{ "name": "beard", "bone": "beard", "attachment": "beard" },
	{ "name": "beard2", "bone": "beard2", "attachment": "beard" }
],
"skins": {
	"default": {
		"Layer 768 copy 50": {
			"Layer 768 copy 50": { "x": -1.3, "y": 21.82, "width": 200, "height": 124 }
		},
		"beard": {
			"beard": { "x": 32.73, "y": 33.75, "width": 79, "height": 80 }
		},
		"beard2": {
			"beard": { "x": 32.73, "y": 33.75, "width": 79, "height": 80 }
		},
		"wing": {
			"wing": { "x": 112.89, "y": -1.55, "width": 234, "height": 407 }
		},
		"wing2": {
			"wing": { "x": 112.89, "y": -1.55, "width": 234, "height": 407 }
		}
	}
},
"animations": {
	"fly": {
		"bones": {
			"body": {
				"translate": [
					{ "time": 0, "x": 0, "y": 0, "curve": "stepped" },
					{ "time": 0.2333, "x": 0, "y": 49.54 }
				]
			},
			"wing": {
				"rotate": [
					{ "time": 0, "angle": 16.87, "curve": "stepped" },
					{ "time": 0.1333, "angle": 0, "curve": "stepped" },
					{ "time": 0.2333, "angle": 15.7, "curve": "stepped" },
					{ "time": 0.3333, "angle": 0, "curve": "stepped" },
					{ "time": 0.4667, "angle": 15.7 }
				],
				"translate": [
					{ "time": 0, "x": 63.44, "y": 0, "curve": "stepped" },
					{ "time": 0.1333, "x": 0, "y": 0, "curve": "stepped" },
					{ "time": 0.2333, "x": 29.05, "y": 0, "curve": "stepped" },
					{ "time": 0.3333, "x": 0, "y": 0, "curve": "stepped" },
					{ "time": 0.4667, "x": 29.05, "y": 0 }
				]
			},
			"head": {
				"translate": [
					{ "time": 0.0333, "x": 0, "y": 0, "curve": "stepped" },
					{ "time": 0.1, "x": 6.79, "y": 0, "curve": "stepped" },
					{ "time": 0.1667, "x": 0, "y": 0, "curve": "stepped" },
					{ "time": 0.2333, "x": 6.79, "y": 0, "curve": "stepped" },
					{ "time": 0.3, "x": 0, "y": 0, "curve": "stepped" },
					{ "time": 0.3667, "x": 6.79, "y": 0, "curve": "stepped" },
					{ "time": 0.4333, "x": 0, "y": 0 }
				]
			},
			"beard": {
				"rotate": [
					{ "time": 0, "angle": 0, "curve": "stepped" },
					{ "time": 0.0667, "angle": -26.47, "curve": "stepped" },
					{ "time": 0.2333, "angle": 9.74, "curve": "stepped" },
					{ "time": 0.4, "angle": -26.47 }
				]
			},
			"wing2": {
				"rotate": [
					{ "time": 0, "angle": -14.39, "curve": "stepped" },
					{ "time": 0.1333, "angle": 0, "curve": "stepped" },
					{ "time": 0.2333, "angle": -12.57, "curve": "stepped" },
					{ "time": 0.3333, "angle": 0, "curve": "stepped" },
					{ "time": 0.4667, "angle": -12.57 }
				],
				"translate": [
					{ "time": 0, "x": -49.44, "y": 0, "curve": "stepped" },
					{ "time": 0.1333, "x": 0, "y": 0, "curve": "stepped" },
					{ "time": 0.2333, "x": -33.2, "y": 0, "curve": "stepped" },
					{ "time": 0.3333, "x": 0, "y": 0, "curve": "stepped" },
					{ "time": 0.4667, "x": -33.2, "y": 0 }
				]
			},
			"beard2": {
				"rotate": [
					{ "time": 0, "angle": 0, "curve": "stepped" },
					{ "time": 0.0667, "angle": 25.79, "curve": "stepped" },
					{ "time": 0.2333, "angle": -6.65, "curve": "stepped" },
					{ "time": 0.4, "angle": 25.79 }
				]
			}
		}
	}
}
}