{
  "__type__": "cc.AnimationClip",
  "_name": "animhanddd_NGANG",
  "_objFlags": 0,
  "_native": "",
  "_duration": 2.25,
  "sample": 60,
  "speed": 0.4,
  "wrapMode": "2",
  "curveData": {
    "paths": {
      "hand": {
        "props": {
          "position": [
            {
              "frame": 0,
              "value": [
                -271.8,
                16.2
              ]
            },
            {
              "frame": 0.6666666666666666,
              "value": [
                -271.8,
                16.2
              ]
            },
            {
              "frame": 0.75,
              "value": [
                4,
                16
              ]
            },
            {
              "frame": 1.4166666666666667,
              "value": [
                4,
                16
              ]
            },
            {
              "frame": 1.5,
              "value": [
                276,
                16
              ]
            },
            {
              "frame": 2.1666666666666665,
              "value": [
                276,
                16
              ]
            },
            {
              "frame": 2.25,
              "value": [
                -271.8,
                16.2
              ]
            }
          ],
          "opacity": [
            {
              "frame": 0,
              "value": 0,
              "curve": "sineIn"
            },
            {
              "frame": 0.08333333333333333,
              "value": 255
            },
            {
              "frame": 0.5833333333333334,
              "value": 255,
              "curve": "sineOut"
            },
            {
              "frame": 0.6666666666666666,
              "value": 0
            },
            {
              "frame": 0.75,
              "value": 0,
              "curve": "sineIn"
            },
            {
              "frame": 0.8333333333333334,
              "value": 255
            },
            {
              "frame": 1.3333333333333333,
              "value": 255,
              "curve": "sineOut"
            },
            {
              "frame": 1.4166666666666667,
              "value": 0
            },
            {
              "frame": 1.5,
              "value": 0,
              "curve": "sineIn"
            },
            {
              "frame": 1.5833333333333333,
              "value": 255
            },
            {
              "frame": 2.0833333333333335,
              "value": 255,
              "curve": "sineOut"
            },
            {
              "frame": 2.1666666666666665,
              "value": 0
            },
            {
              "frame": 2.25,
              "value": 0
            }
          ],
          "scale": [
            {
              "frame": 0,
              "value": {
                "__type__": "cc.Vec2",
                "x": 1,
                "y": 1
              },
              "curve": "sineInOut"
            },
            {
              "frame": 0.16666666666666666,
              "value": {
                "__type__": "cc.Vec2",
                "x": 0.82,
                "y": 0.82
              },
              "curve": "sineInOut"
            },
            {
              "frame": 0.3333333333333333,
              "value": {
                "__type__": "cc.Vec2",
                "x": 1,
                "y": 1
              },
              "curve": "sineInOut"
            },
            {
              "frame": 0.5,
              "value": {
                "__type__": "cc.Vec2",
                "x": 0.82,
                "y": 0.82
              },
              "curve": "sineInOut"
            },
            {
              "frame": 0.6666666666666666,
              "value": {
                "__type__": "cc.Vec2",
                "x": 1,
                "y": 1
              }
            },
            {
              "frame": 0.75,
              "value": {
                "__type__": "cc.Vec2",
                "x": 1,
                "y": 1
              },
              "curve": "sineInOut"
            },
            {
              "frame": 0.9166666666666666,
              "value": {
                "__type__": "cc.Vec2",
                "x": 0.82,
                "y": 0.82
              },
              "curve": "sineInOut"
            },
            {
              "frame": 1.0833333333333333,
              "value": {
                "__type__": "cc.Vec2",
                "x": 1,
                "y": 1
              },
              "curve": "sineInOut"
            },
            {
              "frame": 1.25,
              "value": {
                "__type__": "cc.Vec2",
                "x": 0.82,
                "y": 0.82
              },
              "curve": "sineInOut"
            },
            {
              "frame": 1.4166666666666667,
              "value": {
                "__type__": "cc.Vec2",
                "x": 1,
                "y": 1
              }
            },
            {
              "frame": 1.5,
              "value": {
                "__type__": "cc.Vec2",
                "x": 1,
                "y": 1
              },
              "curve": "sineInOut"
            },
            {
              "frame": 1.6666666666666667,
              "value": {
                "__type__": "cc.Vec2",
                "x": 0.82,
                "y": 0.82
              },
              "curve": "sineInOut"
            },
            {
              "frame": 1.8333333333333333,
              "value": {
                "__type__": "cc.Vec2",
                "x": 1,
                "y": 1
              },
              "curve": "sineInOut"
            },
            {
              "frame": 2,
              "value": {
                "__type__": "cc.Vec2",
                "x": 0.82,
                "y": 0.82
              },
              "curve": "sineInOut"
            },
            {
              "frame": 2.1666666666666665,
              "value": {
                "__type__": "cc.Vec2",
                "x": 1,
                "y": 1
              }
            },
            {
              "frame": 2.25,
              "value": {
                "__type__": "cc.Vec2",
                "x": 1,
                "y": 1
              }
            }
          ]
        }
      },
      "claimCoin": {
        "props": {
          "opacity": [
            {
              "frame": 0.08333333333333333,
              "value": 0
            },
            {
              "frame": 0.16666666666666666,
              "value": 255
            },
            {
              "frame": 0.5,
              "value": 255
            },
            {
              "frame": 0.5833333333333334,
              "value": 0
            },
            {
              "frame": 0.8333333333333334,
              "value": 0
            },
            {
              "frame": 0.9166666666666666,
              "value": 255
            },
            {
              "frame": 1.25,
              "value": 255
            },
            {
              "frame": 1.3333333333333333,
              "value": 0
            },
            {
              "frame": 1.5833333333333333,
              "value": 0
            },
            {
              "frame": 1.6666666666666667,
              "value": 255
            },
            {
              "frame": 2,
              "value": 255
            },
            {
              "frame": 2.0833333333333335,
              "value": 0
            }
          ],
          "scale": [
            {
              "frame": 0.08333333333333333,
              "value": {
                "__type__": "cc.Vec2",
                "x": 0,
                "y": 0
              },
              "curve": "sineOut"
            },
            {
              "frame": 0.5833333333333334,
              "value": {
                "__type__": "cc.Vec2",
                "x": 1.95,
                "y": 1.95
              }
            },
            {
              "frame": 0.8333333333333334,
              "value": {
                "__type__": "cc.Vec2",
                "x": 0,
                "y": 0
              },
              "curve": "sineOut"
            },
            {
              "frame": 1.3333333333333333,
              "value": {
                "__type__": "cc.Vec2",
                "x": 1.95,
                "y": 1.95
              }
            },
            {
              "frame": 1.5833333333333333,
              "value": {
                "__type__": "cc.Vec2",
                "x": 0,
                "y": 0
              },
              "curve": "sineOut"
            },
            {
              "frame": 2.0833333333333335,
              "value": {
                "__type__": "cc.Vec2",
                "x": 1.95,
                "y": 1.95
              }
            }
          ],
          "position": [
            {
              "frame": 0.08333333333333333,
              "value": [
                -275,
                22
              ]
            },
            {
              "frame": 0.5833333333333334,
              "value": [
                -275,
                22
              ]
            },
            {
              "frame": 0.8333333333333334,
              "value": [
                0.9,
                18.4
              ]
            },
            {
              "frame": 1.3333333333333333,
              "value": [
                0.9,
                18.4
              ]
            },
            {
              "frame": 1.5833333333333333,
              "value": [
                274.9,
                11.1
              ]
            },
            {
              "frame": 2.0833333333333335,
              "value": [
                274.9,
                11.1
              ]
            }
          ]
        }
      },
      "ship1": {
        "props": {
          "scale": [
            {
              "frame": 0,
              "value": {
                "__type__": "cc.Vec2",
                "x": 0.9,
                "y": 0.9
              },
              "curve": "sineInOut"
            },
            {
              "frame": 0.16666666666666666,
              "value": {
                "__type__": "cc.Vec2",
                "x": 1,
                "y": 1
              },
              "curve": "sineInOut"
            },
            {
              "frame": 0.3333333333333333,
              "value": {
                "__type__": "cc.Vec2",
                "x": 0.9,
                "y": 0.9
              },
              "curve": "sineInOut"
            },
            {
              "frame": 0.5,
              "value": {
                "__type__": "cc.Vec2",
                "x": 1,
                "y": 1
              },
              "curve": "sineInOut"
            },
            {
              "frame": 0.6666666666666666,
              "value": {
                "__type__": "cc.Vec2",
                "x": 0.9,
                "y": 0.9
              }
            }
          ]
        }
      },
      "ship2": {
        "props": {
          "scale": [
            {
              "frame": 0.75,
              "value": {
                "__type__": "cc.Vec2",
                "x": 0.9,
                "y": 0.9
              },
              "curve": "sineInOut"
            },
            {
              "frame": 0.9166666666666666,
              "value": {
                "__type__": "cc.Vec2",
                "x": 1,
                "y": 1
              },
              "curve": "sineInOut"
            },
            {
              "frame": 1.0833333333333333,
              "value": {
                "__type__": "cc.Vec2",
                "x": 0.9,
                "y": 0.9
              },
              "curve": "sineInOut"
            },
            {
              "frame": 1.25,
              "value": {
                "__type__": "cc.Vec2",
                "x": 1,
                "y": 1
              },
              "curve": "sineInOut"
            },
            {
              "frame": 1.4166666666666667,
              "value": {
                "__type__": "cc.Vec2",
                "x": 0.9,
                "y": 0.9
              }
            }
          ]
        }
      },
      "ship3": {
        "props": {
          "scale": [
            {
              "frame": 0,
              "value": {
                "__type__": "cc.Vec2",
                "x": 0.9,
                "y": 0.9
              }
            },
            {
              "frame": 1.5,
              "value": {
                "__type__": "cc.Vec2",
                "x": 0.9,
                "y": 0.9
              },
              "curve": "sineInOut"
            },
            {
              "frame": 1.6666666666666667,
              "value": {
                "__type__": "cc.Vec2",
                "x": 1,
                "y": 1
              },
              "curve": "sineInOut"
            },
            {
              "frame": 1.8333333333333333,
              "value": {
                "__type__": "cc.Vec2",
                "x": 0.9,
                "y": 0.9
              },
              "curve": "sineInOut"
            },
            {
              "frame": 2,
              "value": {
                "__type__": "cc.Vec2",
                "x": 1,
                "y": 1
              },
              "curve": "sineInOut"
            },
            {
              "frame": 2.1666666666666665,
              "value": {
                "__type__": "cc.Vec2",
                "x": 0.9,
                "y": 0.9
              }
            }
          ]
        }
      }
    }
  },
  "events": []
}