{
  "__type__": "cc.AnimationClip",
  "_name": "animItemShip",
  "_objFlags": 0,
  "_native": "",
  "_duration": 0.6666666666666666,
  "sample": 60,
  "speed": 0.6,
  "wrapMode": 2,
  "curveData": {
    "paths": {
      "itemShip11": {
        "props": {
          "scale": [
            {
              "frame": 0,
              "value": {
                "__type__": "cc.Vec2",
                "x": 1,
                "y": 1
              }
            },
            {
              "frame": 0.16666666666666666,
              "value": {
                "__type__": "cc.Vec2",
                "x": 1.116,
                "y": 1.116
              }
            },
            {
              "frame": 0.3333333333333333,
              "value": {
                "__type__": "cc.Vec2",
                "x": 1,
                "y": 1
              }
            },
            {
              "frame": 0.5,
              "value": {
                "__type__": "cc.Vec2",
                "x": 1.116,
                "y": 1.116
              }
            },
            {
              "frame": 0.6666666666666666,
              "value": {
                "__type__": "cc.Vec2",
                "x": 1,
                "y": 1
              }
            }
          ]
        }
      },
      "itemEfx_blue": {
        "props": {
          "angle": [
            {
              "frame": 0,
              "value": 0
            },
            {
              "frame": 0.16666666666666666,
              "value": 90
            },
            {
              "frame": 0.3333333333333333,
              "value": 180
            },
            {
              "frame": 0.5,
              "value": 270
            },
            {
              "frame": 0.6666666666666666,
              "value": 360
            }
          ]
        }
      }
    }
  },
  "events": []
}