{
  "__type__": "cc.AnimationClip",
  "_name": "animBullet1",
  "_objFlags": 0,
  "_native": "",
  "_duration": 0.5,
  "sample": 60,
  "speed": 1,
  "wrapMode": "2",
  "curveData": {
    "props": {
      "angle": [
        {
          "frame": 0,
          "value": 0
        },
        {
          "frame": 0.5,
          "value": -360
        }
      ]
    }
  },
  "events": []
}