{
  "__type__": "cc.AnimationClip",
  "_name": "bossExplosion",
  "_objFlags": 0,
  "_native": "",
  "_duration": 0.5166666666666667,
  "sample": 60,
  "speed": 1,
  "wrapMode": 1,
  "curveData": {
    "comps": {
      "cc.Sprite": {
        "spriteFrame": [
          {
            "frame": 0,
            "value": {
              "__uuid__": "3f6f1a33-6222-4c89-99e3-b4162e27ce0e"
            }
          },
          {
            "frame": 0.08333333333333333,
            "value": {
              "__uuid__": "3892131f-4e5b-4a54-8754-c3e62fcbe33a"
            }
          },
          {
            "frame": 0.16666666666666666,
            "value": {
              "__uuid__": "d5bcb934-fc8a-459e-8071-58e065bd6336"
            }
          },
          {
            "frame": 0.25,
            "value": {
              "__uuid__": "01f45d68-6701-4de6-aa98-6143ff5bad99"
            }
          },
          {
            "frame": 0.3333333333333333,
            "value": {
              "__uuid__": "d95c025b-5a67-4658-8e02-e1161ed54bdc"
            }
          },
          {
            "frame": 0.4166666666666667,
            "value": {
              "__uuid__": "ecb18111-096b-4f7a-bd9f-68c512603ab0"
            }
          },
          {
            "frame": 0.5,
            "value": {
              "__uuid__": "62eff5e1-8bcf-4771-858d-52ed47903742"
            }
          }
        ]
      }
    }
  },
  "events": []
}