{
  "__type__": "cc.AnimationClip",
  "_name": "bossMoveAround",
  "_objFlags": 0,
  "_native": "",
  "_duration": 4,
  "sample": 60,
  "speed": 1,
  "wrapMode": "2",
  "curveData": {
    "props": {
      "x": [
        {
          "frame": 0,
          "value": 0
        },
        {
          "frame": 1,
          "value": -200
        },
        {
          "frame": 2,
          "value": 0
        },
        {
          "frame": 3,
          "value": 200
        },
        {
          "frame": 4,
          "value": 0
        }
      ]
    }
  },
  "events": []
}