{
  "__type__": "cc.AnimationClip",
  "_name": "bossExplosion2",
  "_objFlags": 0,
  "_native": "",
  "_duration": 0.6833333333333333,
  "sample": 60,
  "speed": 1,
  "wrapMode": 1,
  "curveData": {
    "comps": {
      "cc.Sprite": {
        "spriteFrame": [
          {
            "frame": 0,
            "value": {
              "__uuid__": "bdbb6c63-aa22-46da-9d37-b701aae7075d"
            }
          },
          {
            "frame": 0.08333333333333333,
            "value": {
              "__uuid__": "be150be0-02c5-4150-b515-3f0ec8317cdd"
            }
          },
          {
            "frame": 0.16666666666666666,
            "value": {
              "__uuid__": "2a985cc9-c8e9-43c2-b9ce-917da268d7d7"
            }
          },
          {
            "frame": 0.25,
            "value": {
              "__uuid__": "d1469df6-e20d-43b9-8c31-7cc0e1de16a0"
            }
          },
          {
            "frame": 0.3333333333333333,
            "value": {
              "__uuid__": "afa0eba3-0f4f-41b0-8b8b-a545d8f59650"
            }
          },
          {
            "frame": 0.4166666666666667,
            "value": {
              "__uuid__": "3370218e-6fc0-49dc-b747-7ad57aea05d1"
            }
          },
          {
            "frame": 0.5,
            "value": {
              "__uuid__": "12b07533-4830-4954-9d74-79e8af377471"
            }
          },
          {
            "frame": 0.5833333333333334,
            "value": {
              "__uuid__": "841bf9c4-c6dc-41c2-a4dc-adf7e76703dc"
            }
          },
          {
            "frame": 0.6666666666666666,
            "value": {
              "__uuid__": "f61beafd-c79d-420e-b3e8-c3bb70a87362"
            }
          }
        ]
      }
    }
  },
  "events": []
}