{
  "__type__": "cc.AnimationClip",
  "_name": "bulletExplosion",
  "_objFlags": 0,
  "_native": "",
  "_duration": 0.35,
  "sample": 60,
  "speed": 2,
  "wrapMode": 1,
  "curveData": {
    "comps": {
      "cc.Sprite": {
        "spriteFrame": [
          {
            "frame": 0,
            "value": {
              "__uuid__": "8e64264d-0e62-4753-9eb2-211467378b21"
            }
          },
          {
            "frame": 0.08333333333333333,
            "value": {
              "__uuid__": "50ebb4ef-b496-4b4a-9299-7cbeec8985c2"
            }
          },
          {
            "frame": 0.16666666666666666,
            "value": {
              "__uuid__": "6350d500-6e50-467b-9909-8b1bbf482dc2"
            }
          },
          {
            "frame": 0.25,
            "value": {
              "__uuid__": "385c01ad-97d9-4967-a49f-08d3cc1b414e"
            }
          },
          {
            "frame": 0.3333333333333333,
            "value": {
              "__uuid__": "8ac84d72-c2ee-4fe9-9aae-0bbe11b7138f"
            }
          }
        ]
      }
    }
  },
  "events": []
}