{
  "__type__": "cc.AnimationClip",
  "_name": "enemyExplosion",
  "_objFlags": 0,
  "_native": "",
  "_duration": 0.6166666666666667,
  "sample": 60,
  "speed": 2,
  "wrapMode": 1,
  "curveData": {
    "comps": {
      "cc.Sprite": {
        "spriteFrame": [
          {
            "frame": 0,
            "value": {
              "__uuid__": "ced3e91c-a61d-4d6b-9823-15b40d8a81f1"
            }
          },
          {
            "frame": 0.08333333333333333,
            "value": {
              "__uuid__": "acd0bd58-58b4-40e7-a7fe-f05b87a03d34"
            }
          },
          {
            "frame": 0.16666666666666666,
            "value": {
              "__uuid__": "e40ba659-392c-447e-a523-e2e673d14ce2"
            }
          },
          {
            "frame": 0.25,
            "value": {
              "__uuid__": "06ae5d9c-b030-4aaa-98c2-8e08955a1018"
            }
          },
          {
            "frame": 0.3333333333333333,
            "value": {
              "__uuid__": "c3eaec8b-2459-4b75-bb85-a7f1bbac18e5"
            }
          },
          {
            "frame": 0.4166666666666667,
            "value": {
              "__uuid__": "be3bd568-0f19-46aa-a757-990a69773a17"
            }
          },
          {
            "frame": 0.5,
            "value": {
              "__uuid__": "e3051272-af4a-4cb5-829e-5ae80ed36b7a"
            }
          },
          {
            "frame": 0.5833333333333334,
            "value": {
              "__uuid__": "986ff2b9-73f6-421d-a680-9142041e7045"
            }
          },
          {
            "frame": 0.6,
            "value": null
          }
        ]
      }
    }
  },
  "events": []
}