{
  "__type__": "cc.AnimationClip",
  "_name": "explosion",
  "_objFlags": 0,
  "_native": "",
  "_duration": 2.3333333333333335,
  "sample": 60,
  "speed": 3,
  "wrapMode": 1,
  "curveData": {
    "comps": {
      "cc.Sprite": {
        "spriteFrame": [
          {
            "frame": 0,
            "value": {
              "__uuid__": "9b608c3e-cb21-43e5-9574-2e0ca44435a9"
            }
          },
          {
            "frame": 0.16666666666666666,
            "value": {
              "__uuid__": "856ce3bf-b55a-42f3-9c98-721438b5e704"
            }
          },
          {
            "frame": 0.3333333333333333,
            "value": {
              "__uuid__": "0f3f2f20-1bdd-4372-8e74-fd6ef1f75952"
            }
          },
          {
            "frame": 0.5,
            "value": {
              "__uuid__": "235168c3-5e43-452e-91af-2fd7021cd8d7"
            }
          },
          {
            "frame": 0.6666666666666666,
            "value": {
              "__uuid__": "701f3b25-8b03-464b-82be-311a33933222"
            }
          },
          {
            "frame": 0.8333333333333334,
            "value": {
              "__uuid__": "772fe9e6-abe6-40a1-ab31-5e12e712f5a8"
            }
          },
          {
            "frame": 1,
            "value": {
              "__uuid__": "3459b789-5b78-4cc7-8c38-3a0f1b67fb34"
            }
          },
          {
            "frame": 1.1666666666666667,
            "value": {
              "__uuid__": "07b02f3f-4034-4aaa-91f8-82943db11293"
            }
          },
          {
            "frame": 1.3333333333333333,
            "value": {
              "__uuid__": "c7640dfc-e088-4c99-8e50-7613cc6a3966"
            }
          },
          {
            "frame": 1.5,
            "value": {
              "__uuid__": "41a065e2-4bf8-4173-a317-5720eb760f17"
            }
          },
          {
            "frame": 1.6666666666666667,
            "value": {
              "__uuid__": "1ed87d1d-9f6c-450f-adca-09f4e0b0655b"
            }
          },
          {
            "frame": 1.8333333333333333,
            "value": {
              "__uuid__": "e9b08d02-202c-4ea0-9f5b-0029fb59871c"
            }
          },
          {
            "frame": 2,
            "value": {
              "__uuid__": "2561a26b-2caf-4c32-90ca-a069ffefd615"
            }
          },
          {
            "frame": 2.1666666666666665,
            "value": {
              "__uuid__": "5e78922e-c729-4a26-a67a-036970f67096"
            }
          }
        ]
      }
    },
    "props": {
      "opacity": [
        {
          "frame": 0,
          "value": 255
        },
        {
          "frame": 2.1666666666666665,
          "value": 255
        },
        {
          "frame": 2.3333333333333335,
          "value": 0
        }
      ]
    }
  },
  "events": []
}