{
  "__type__": "cc.AnimationClip",
  "_name": "fxCup",
  "_objFlags": 0,
  "_native": "",
  "_duration": 0.6666666666666666,
  "sample": 60,
  "speed": 0.2,
  "wrapMode": "2",
  "curveData": {
    "paths": {
      "1": {
        "props": {
          "angle": [
            {
              "frame": 0,
              "value": 0
            },
            {
              "frame": 0.16666666666666666,
              "value": -90
            },
            {
              "frame": 0.3333333333333333,
              "value": -180
            },
            {
              "frame": 0.5,
              "value": -270
            },
            {
              "frame": 0.6666666666666666,
              "value": -360
            }
          ]
        }
      },
      "2": {
        "props": {
          "angle": [
            {
              "frame": 0,
              "value": 0
            },
            {
              "frame": 0.16666666666666666,
              "value": 90
            },
            {
              "frame": 0.3333333333333333,
              "value": 180
            },
            {
              "frame": 0.5,
              "value": 270
            },
            {
              "frame": 0.6666666666666666,
              "value": 360
            }
          ]
        }
      }
    }
  },
  "events": []
}