{
  "__type__": "cc.AnimationClip",
  "_name": "ring",
  "_objFlags": 0,
  "_native": "",
  "_duration": 0.06666666666666667,
  "sample": 60,
  "speed": 0.1,
  "wrapMode": 22,
  "curveData": {
    "props": {
      "angle": [
        {
          "frame": 0,
          "value": -15
        },
        {
          "frame": 0.016666666666666666,
          "value": -7
        },
        {
          "frame": 0.03333333333333333,
          "value": 0
        },
        {
          "frame": 0.05,
          "value": 7
        },
        {
          "frame": 0.06666666666666667,
          "value": 15
        }
      ]
    }
  },
  "events": []
}