{
  "__type__": "cc.AnimationClip",
  "_name": "sceneAppear",
  "_objFlags": 0,
  "_native": "",
  "_duration": 7.333333333333333,
  "sample": 60,
  "speed": 1,
  "wrapMode": "1",
  "curveData": {
    "paths": {
      "storyText/splashTxt": {
        "props": {
          "opacity": [
            {
              "frame": 1.5,
              "value": 0,
              "curve": "linear"
            },
            {
              "frame": 1.8333333333333333,
              "value": 255
            }
          ],
          "scale": [
            {
              "frame": 1.5,
              "value": {
                "__type__": "cc.Vec2",
                "x": 2,
                "y": 2
              },
              "curve": [
                0.18,
                0.89,
                0.31,
                1.21
              ]
            },
            {
              "frame": 1.8333333333333333,
              "value": {
                "__type__": "cc.Vec2",
                "x": 0.9,
                "y": 0.9
              }
            }
          ]
        }
      },
      "storyText/fightnow": {
        "props": {
          "opacity": [
            {
              "frame": 2,
              "value": 0
            },
            {
              "frame": 2.3333333333333335,
              "value": 255
            }
          ],
          "scale": [
            {
              "frame": 2,
              "value": {
                "__type__": "cc.Vec2",
                "x": 2,
                "y": 2
              },
              "curve": [
                0.18,
                0.89,
                0.31,
                1.21
              ]
            },
            {
              "frame": 2.3333333333333335,
              "value": {
                "__type__": "cc.Vec2",
                "x": 0.9,
                "y": 0.9
              }
            }
          ]
        }
      },
      "ship": {
        "props": {
          "position": [
            {
              "frame": 2.3333333333333335,
              "value": [
                0,
                -699
              ],
              "curve": [
                0.18,
                0.89,
                0.31,
                1.21
              ]
            },
            {
              "frame": 2.9166666666666665,
              "value": [
                0,
                -300
              ]
            }
          ]
        }
      },
      "InstallToPlay": {
        "props": {
          "scale": [
            {
              "frame": 2.933333333333333,
              "value": {
                "__type__": "cc.Vec2",
                "x": 2,
                "y": 2
              },
              "curve": [
                0.18,
                0.89,
                0.3139023476523476,
                1.2470723026973027
              ]
            },
            {
              "frame": 3.3333333333333335,
              "value": {
                "__type__": "cc.Vec2",
                "x": 1,
                "y": 1
              }
            }
          ],
          "opacity": [
            {
              "frame": 2.933333333333333,
              "value": 0
            },
            {
              "frame": 3.3333333333333335,
              "value": 255
            }
          ]
        }
      },
      "hand": {
        "props": {
          "opacity": [
            {
              "frame": 3.3333333333333335,
              "value": 0
            },
            {
              "frame": 4,
              "value": 255
            },
            {
              "frame": 6.666666666666667,
              "value": 255
            },
            {
              "frame": 7.333333333333333,
              "value": 0
            }
          ],
          "position": [
            {
              "frame": 3.3333333333333335,
              "value": [
                140,
                -330
              ]
            },
            {
              "frame": 4,
              "value": [
                121,
                -356
              ]
            },
            {
              "frame": 4.666666666666667,
              "value": [
                140,
                -330
              ]
            },
            {
              "frame": 5.333333333333333,
              "value": [
                121,
                -356
              ]
            },
            {
              "frame": 6,
              "value": [
                140,
                -330
              ]
            },
            {
              "frame": 6.666666666666667,
              "value": [
                121,
                -356
              ]
            },
            {
              "frame": 7.333333333333333,
              "value": [
                140,
                -330
              ]
            }
          ]
        }
      }
    }
  },
  "events": []
}