{
  "__type__": "cc.AnimationClip",
  "_name": "Wing",
  "_objFlags": 0,
  "_native": "",
  "_duration": 0.3333333333333333,
  "sample": 60,
  "speed": 1,
  "wrapMode": "2",
  "curveData": {
    "paths": {
      "canh2": {
        "props": {
          "active": [
            {
              "frame": 0,
              "value": false
            },
            {
              "frame": 0.16666666666666666,
              "value": true
            },
            {
              "frame": 0.3333333333333333,
              "value": false
            }
          ]
        }
      }
    },
    "props": {
      "scale": [
        {
          "frame": 0,
          "value": {
            "__type__": "cc.Vec2",
            "x": 1,
            "y": 1
          },
          "curve": "sineInOut"
        },
        {
          "frame": 0.16666666666666666,
          "value": {
            "__type__": "cc.Vec2",
            "x": 1.06,
            "y": 1.06
          },
          "curve": "sineInOut"
        },
        {
          "frame": 0.3333333333333333,
          "value": {
            "__type__": "cc.Vec2",
            "x": 1,
            "y": 1
          }
        }
      ]
    }
  },
  "events": []
}