{
"skeleton": { "hash": "fqLdFrVnbqaJugsWCGwrDIPWan4", "spine": "3.6.53", "width": 163.07, "height": 161.47, "images": "" },
"bones": [
	{ "name": "root" },
	{ "name": "scale", "parent": "root", "scaleX": 0.12, "scaleY": 0.12 },
	{ "name": "body", "parent": "scale", "y": 851.24 },
	{ "name": "deco", "parent": "body", "y": -220.31 },
	{ "name": "head", "parent": "body", "y": 206.39 },
	{ "name": "rocket", "parent": "body", "x": 295.88, "y": -488.99 },
	{ "name": "rocket2", "parent": "body", "x": 324.61, "y": -291.79 },
	{ "name": "rocket3", "parent": "deco", "x": -249.99, "y": -261.3 },
	{ "name": "rocket4", "parent": "body", "x": -317.98, "y": -291.79 },
	{ "name": "wing", "parent": "body", "x": 427.79, "y": -451.12 },
	{ "name": "wing2", "parent": "body", "x": -444.21, "y": -451.12, "scaleX": -1 }
],
"slots": [
	{ "name": "body", "bone": "body", "attachment": "body" },
	{ "name": "wing", "bone": "wing", "attachment": "wing" },
	{ "name": "wing2", "bone": "wing2", "attachment": "wing" },
	{ "name": "rocket2", "bone": "rocket2", "attachment": "rocket2" },
	{ "name": "rocket4", "bone": "rocket4", "attachment": "rocket2" },
	{ "name": "rocket3", "bone": "rocket3", "attachment": "rocket3" },
	{ "name": "rocket", "bone": "rocket", "attachment": "rocket" },
	{ "name": "deco", "bone": "deco", "attachment": "deco" },
	{ "name": "head", "bone": "head", "attachment": "head" },
	{ "name": "skin/Group 1 copy 2", "bone": "rocket", "attachment": "skin/Group 1 copy 2" },
	{ "name": "skin/Group 1 copy 4", "bone": "rocket3", "attachment": "skin/Group 1 copy 2" },
	{ "name": "skin/Group 1 copy 3", "bone": "rocket", "attachment": "skin/Group 1 copy 2" },
	{ "name": "skin/Group 1 copy 5", "bone": "rocket3", "attachment": "skin/Group 1 copy 2" },
	{ "name": "skin/Layer 115 copy 3", "bone": "rocket", "attachment": "skin/Layer 115 copy 3" },
	{ "name": "skin/Layer 115 copy 4", "bone": "rocket3", "attachment": "skin/Layer 115 copy 3" }
],
"skins": {
	"default": {
		"body": {
			"body": { "x": -9.16, "y": -244.74, "width": 796, "height": 1213 }
		},
		"deco": {
			"deco": { "x": -2.16, "y": 29.06, "width": 196, "height": 326 }
		},
		"head": {
			"head": { "x": -2.66, "y": 82.37, "width": 305, "height": 298 }
		},
		"rocket": {
			"rocket": { "x": -36.04, "y": -0.75, "width": 354, "height": 587 }
		},
		"rocket2": {
			"rocket2": { "x": -18.77, "y": 57.54, "width": 188, "height": 450 }
		},
		"rocket3": {
			"rocket3": { "path": "Group 7 copy", "x": -14.17, "y": -8.14, "width": 350, "height": 587 }
		},
		"rocket4": {
			"rocket2": { "x": -18.77, "y": 57.54, "width": 188, "height": 450 }
		}
	},
	"skin1": {
		"wing": {
			"wing": { "x": 62.56, "y": 22.87, "width": 357, "height": 528 }
		},
		"wing2": {
			"wing": { "x": 62.56, "y": 22.87, "width": 357, "height": 528 }
		}
	},
	"skin2": {
		"skin/Group 1 copy 2": {
			"skin/Group 1 copy 2": { "x": 41.65, "y": -257.87, "width": 133, "height": 322 }
		},
		"skin/Group 1 copy 3": {
			"skin/Group 1 copy 2": { "x": -90.73, "y": -257.87, "scaleX": -1, "width": 133, "height": 322 }
		},
		"skin/Group 1 copy 4": {
			"skin/Group 1 copy 2": { "x": 65.29, "y": -262.78, "width": 133, "height": 322 }
		},
		"skin/Group 1 copy 5": {
			"skin/Group 1 copy 2": { "x": -69.86, "y": -265.25, "scaleX": -1, "width": 133, "height": 322 }
		},
		"skin/Layer 115 copy 3": {
			"skin/Layer 115 copy 3": { "x": -14.6, "y": 184.78, "width": 87, "height": 93 }
		},
		"skin/Layer 115 copy 4": {
			"skin/Layer 115 copy 3": { "x": 2.02, "y": 177.39, "width": 87, "height": 93 }
		},
		"wing": {
			"wing": { "name": "skin/Group 3 copy", "x": 82.51, "y": 37.12, "width": 339, "height": 773 }
		},
		"wing2": {
			"wing": { "name": "skin/Group 3 copy", "x": 65.41, "y": 40.67, "width": 339, "height": 773 }
		}
	}
},
"animations": {
	"fly": {
		"slots": {
			"body": {
				"color": [
					{ "time": 0, "color": "ffffffff", "curve": "stepped" },
					{ "time": 0.6667, "color": "ffffffff" }
				],
				"attachment": [
					{ "time": 0, "name": "body" },
					{ "time": 0.6667, "name": "body" }
				]
			},
			"deco": {
				"color": [
					{ "time": 0, "color": "ffffffff", "curve": "stepped" },
					{ "time": 0.6667, "color": "ffffffff" }
				],
				"attachment": [
					{ "time": 0, "name": "deco" },
					{ "time": 0.6667, "name": "deco" }
				]
			},
			"head": {
				"color": [
					{ "time": 0, "color": "ffffffff", "curve": "stepped" },
					{ "time": 0.6667, "color": "ffffffff" }
				],
				"attachment": [
					{ "time": 0, "name": "head" },
					{ "time": 0.6667, "name": "head" }
				]
			},
			"rocket": {
				"color": [
					{ "time": 0, "color": "ffffffff", "curve": "stepped" },
					{ "time": 0.6667, "color": "ffffffff" }
				],
				"attachment": [
					{ "time": 0, "name": "rocket" },
					{ "time": 0.6667, "name": "rocket" }
				]
			},
			"rocket2": {
				"color": [
					{ "time": 0, "color": "ffffffff", "curve": "stepped" },
					{ "time": 0.6667, "color": "ffffffff" }
				],
				"attachment": [
					{ "time": 0, "name": "rocket2" },
					{ "time": 0.6667, "name": "rocket2" }
				]
			},
			"rocket3": {
				"color": [
					{ "time": 0, "color": "ffffffff", "curve": "stepped" },
					{ "time": 0.6667, "color": "ffffffff" }
				],
				"attachment": [
					{ "time": 0, "name": "rocket3" },
					{ "time": 0.6667, "name": "rocket3" }
				]
			},
			"rocket4": {
				"color": [
					{ "time": 0, "color": "ffffffff", "curve": "stepped" },
					{ "time": 0.6667, "color": "ffffffff" }
				],
				"attachment": [
					{ "time": 0, "name": "rocket2" },
					{ "time": 0.6667, "name": "rocket2" }
				]
			},
			"wing": {
				"color": [
					{ "time": 0, "color": "ffffffff", "curve": "stepped" },
					{ "time": 0.6667, "color": "ffffffff" }
				],
				"attachment": [
					{ "time": 0, "name": "wing" },
					{ "time": 0.6667, "name": "wing" }
				]
			},
			"wing2": {
				"color": [
					{ "time": 0, "color": "ffffffff", "curve": "stepped" },
					{ "time": 0.6667, "color": "ffffffff" }
				],
				"attachment": [
					{ "time": 0, "name": "wing" },
					{ "time": 0.6667, "name": "wing" }
				]
			}
		},
		"bones": {
			"root": {
				"rotate": [
					{ "time": 0, "angle": 0, "curve": "stepped" },
					{ "time": 0.6667, "angle": 0 }
				],
				"translate": [
					{ "time": 0, "x": 0, "y": 0, "curve": "stepped" },
					{ "time": 0.6667, "x": 0, "y": 0 }
				],
				"scale": [
					{ "time": 0, "x": 1, "y": 1, "curve": "stepped" },
					{ "time": 0.6667, "x": 1, "y": 1 }
				]
			},
			"scale": {
				"rotate": [
					{ "time": 0, "angle": 0, "curve": "stepped" },
					{ "time": 0.6667, "angle": 0 }
				],
				"translate": [
					{ "time": 0, "x": 0, "y": 0, "curve": "stepped" },
					{ "time": 0.6667, "x": 0, "y": 0 }
				],
				"scale": [
					{ "time": 0, "x": 1, "y": 1, "curve": "stepped" },
					{ "time": 0.6667, "x": 1, "y": 1 }
				]
			},
			"body": {
				"rotate": [
					{ "time": 0, "angle": 0, "curve": "stepped" },
					{ "time": 0.1333, "angle": 0, "curve": "stepped" },
					{ "time": 0.2667, "angle": 0, "curve": "stepped" },
					{ "time": 0.4, "angle": 0, "curve": "stepped" },
					{ "time": 0.5333, "angle": 0, "curve": "stepped" },
					{ "time": 0.6667, "angle": 0 }
				],
				"translate": [
					{ "time": 0, "x": 0, "y": 0 },
					{ "time": 0.0333, "x": 0, "y": 9 },
					{ "time": 0.1333, "x": 0, "y": 0 },
					{ "time": 0.1667, "x": 0, "y": 9 },
					{ "time": 0.2667, "x": 0, "y": 0 },
					{ "time": 0.3, "x": 0, "y": 9 },
					{ "time": 0.4, "x": 0, "y": 0 },
					{ "time": 0.4333, "x": 0, "y": 9 },
					{ "time": 0.5333, "x": 0, "y": 0 },
					{ "time": 0.5667, "x": 0, "y": 9 },
					{ "time": 0.6667, "x": 0, "y": 0 }
				],
				"scale": [
					{ "time": 0, "x": 1, "y": 1, "curve": "stepped" },
					{ "time": 0.1333, "x": 1, "y": 1, "curve": "stepped" },
					{ "time": 0.2667, "x": 1, "y": 1, "curve": "stepped" },
					{ "time": 0.4, "x": 1, "y": 1, "curve": "stepped" },
					{ "time": 0.5333, "x": 1, "y": 1, "curve": "stepped" },
					{ "time": 0.6667, "x": 1, "y": 1 }
				]
			},
			"deco": {
				"rotate": [
					{ "time": 0, "angle": 0, "curve": "stepped" },
					{ "time": 0.1333, "angle": 0, "curve": "stepped" },
					{ "time": 0.2667, "angle": 0, "curve": "stepped" },
					{ "time": 0.4, "angle": 0, "curve": "stepped" },
					{ "time": 0.5333, "angle": 0, "curve": "stepped" },
					{ "time": 0.6667, "angle": 0 }
				],
				"translate": [
					{ "time": 0, "x": 0, "y": 0, "curve": "stepped" },
					{ "time": 0.1333, "x": 0, "y": 0, "curve": "stepped" },
					{ "time": 0.2667, "x": 0, "y": 0, "curve": "stepped" },
					{ "time": 0.4, "x": 0, "y": 0, "curve": "stepped" },
					{ "time": 0.5333, "x": 0, "y": 0, "curve": "stepped" },
					{ "time": 0.6667, "x": 0, "y": 0 }
				],
				"scale": [
					{ "time": 0, "x": 1, "y": 1, "curve": "stepped" },
					{ "time": 0.1333, "x": 1, "y": 1, "curve": "stepped" },
					{ "time": 0.2667, "x": 1, "y": 1, "curve": "stepped" },
					{ "time": 0.4, "x": 1, "y": 1, "curve": "stepped" },
					{ "time": 0.5333, "x": 1, "y": 1, "curve": "stepped" },
					{ "time": 0.6667, "x": 1, "y": 1 }
				]
			},
			"rocket": {
				"rotate": [
					{ "time": 0, "angle": 0, "curve": "stepped" },
					{ "time": 0.1667, "angle": 0, "curve": "stepped" },
					{ "time": 0.3333, "angle": 0, "curve": "stepped" },
					{ "time": 0.5, "angle": 0, "curve": "stepped" },
					{ "time": 0.6667, "angle": 0 }
				],
				"translate": [
					{ "time": 0, "x": 0, "y": 0 },
					{ "time": 0.0667, "x": 16.4, "y": 15.37 },
					{ "time": 0.1667, "x": 0, "y": 0 },
					{ "time": 0.2333, "x": 16.4, "y": 15.37 },
					{ "time": 0.3333, "x": 0, "y": 0 },
					{ "time": 0.4, "x": 16.4, "y": 15.37 },
					{ "time": 0.5, "x": 0, "y": 0 },
					{ "time": 0.5667, "x": 16.4, "y": 15.37 },
					{ "time": 0.6667, "x": 0, "y": 0 }
				],
				"scale": [
					{ "time": 0, "x": 1, "y": 1, "curve": "stepped" },
					{ "time": 0.1667, "x": 1, "y": 1, "curve": "stepped" },
					{ "time": 0.3333, "x": 1, "y": 1, "curve": "stepped" },
					{ "time": 0.5, "x": 1, "y": 1, "curve": "stepped" },
					{ "time": 0.6667, "x": 1, "y": 1 }
				]
			},
			"rocket2": {
				"rotate": [
					{ "time": 0, "angle": 0, "curve": "stepped" },
					{ "time": 0.6667, "angle": 0 }
				],
				"translate": [
					{ "time": 0, "x": 0, "y": 0, "curve": "stepped" },
					{ "time": 0.6667, "x": 0, "y": 0 }
				],
				"scale": [
					{ "time": 0, "x": 1, "y": 1, "curve": "stepped" },
					{ "time": 0.6667, "x": 1, "y": 1 }
				]
			},
			"wing": {
				"rotate": [
					{ "time": 0, "angle": 0, "curve": "stepped" },
					{ "time": 0.1333, "angle": 0, "curve": "stepped" },
					{ "time": 0.2667, "angle": 0, "curve": "stepped" },
					{ "time": 0.4, "angle": 0, "curve": "stepped" },
					{ "time": 0.5333, "angle": 0, "curve": "stepped" },
					{ "time": 0.6667, "angle": 0 }
				],
				"translate": [
					{ "time": 0, "x": 0, "y": 0 },
					{ "time": 0.0333, "x": 18.45, "y": -19.47 },
					{ "time": 0.1333, "x": 0, "y": 0 },
					{ "time": 0.1667, "x": 18.45, "y": -19.47 },
					{ "time": 0.2667, "x": 0, "y": 0 },
					{ "time": 0.3, "x": 18.45, "y": -19.47 },
					{ "time": 0.4, "x": 0, "y": 0 },
					{ "time": 0.4333, "x": 18.45, "y": -19.47 },
					{ "time": 0.5333, "x": 0, "y": 0 },
					{ "time": 0.5667, "x": 18.45, "y": -19.47 },
					{ "time": 0.6667, "x": 0, "y": 0 }
				],
				"scale": [
					{ "time": 0, "x": 1, "y": 1, "curve": "stepped" },
					{ "time": 0.1333, "x": 1, "y": 1, "curve": "stepped" },
					{ "time": 0.2667, "x": 1, "y": 1, "curve": "stepped" },
					{ "time": 0.4, "x": 1, "y": 1, "curve": "stepped" },
					{ "time": 0.5333, "x": 1, "y": 1, "curve": "stepped" },
					{ "time": 0.6667, "x": 1, "y": 1 }
				]
			},
			"head": {
				"rotate": [
					{ "time": 0, "angle": 0, "curve": "stepped" },
					{ "time": 0.6667, "angle": 0 }
				],
				"translate": [
					{ "time": 0, "x": 0, "y": 0, "curve": "stepped" },
					{ "time": 0.6667, "x": 0, "y": 0 }
				],
				"scale": [
					{ "time": 0, "x": 1, "y": 1, "curve": "stepped" },
					{ "time": 0.6667, "x": 1, "y": 1 }
				]
			},
			"rocket3": {
				"rotate": [
					{ "time": 0, "angle": 0, "curve": "stepped" },
					{ "time": 0.1667, "angle": 0, "curve": "stepped" },
					{ "time": 0.3333, "angle": 0, "curve": "stepped" },
					{ "time": 0.5, "angle": 0, "curve": "stepped" },
					{ "time": 0.6667, "angle": 0 }
				],
				"translate": [
					{ "time": 0, "x": 0, "y": 0 },
					{ "time": 0.0667, "x": -12.25, "y": 17.15 },
					{ "time": 0.1667, "x": 0, "y": 0 },
					{ "time": 0.2333, "x": -12.25, "y": 17.15 },
					{ "time": 0.3333, "x": 0, "y": 0 },
					{ "time": 0.4, "x": -12.25, "y": 17.15 },
					{ "time": 0.5, "x": 0, "y": 0 },
					{ "time": 0.5667, "x": -12.25, "y": 17.15 },
					{ "time": 0.6667, "x": 0, "y": 0 }
				],
				"scale": [
					{ "time": 0, "x": 1, "y": 1, "curve": "stepped" },
					{ "time": 0.1667, "x": 1, "y": 1, "curve": "stepped" },
					{ "time": 0.3333, "x": 1, "y": 1, "curve": "stepped" },
					{ "time": 0.5, "x": 1, "y": 1, "curve": "stepped" },
					{ "time": 0.6667, "x": 1, "y": 1 }
				]
			},
			"rocket4": {
				"rotate": [
					{ "time": 0, "angle": 0, "curve": "stepped" },
					{ "time": 0.6667, "angle": 0 }
				],
				"translate": [
					{ "time": 0, "x": 0, "y": 0, "curve": "stepped" },
					{ "time": 0.6667, "x": 0, "y": 0 }
				],
				"scale": [
					{ "time": 0, "x": 1, "y": 1, "curve": "stepped" },
					{ "time": 0.6667, "x": 1, "y": 1 }
				]
			},
			"wing2": {
				"rotate": [
					{ "time": 0, "angle": 0, "curve": "stepped" },
					{ "time": 0.1333, "angle": 0, "curve": "stepped" },
					{ "time": 0.2667, "angle": 0, "curve": "stepped" },
					{ "time": 0.4, "angle": 0, "curve": "stepped" },
					{ "time": 0.5333, "angle": 0, "curve": "stepped" },
					{ "time": 0.6667, "angle": 0 }
				],
				"translate": [
					{ "time": 0, "x": 0, "y": 0 },
					{ "time": 0.0333, "x": -13.81, "y": -23.37 },
					{ "time": 0.1333, "x": 0, "y": 0 },
					{ "time": 0.1667, "x": -13.81, "y": -23.37 },
					{ "time": 0.2667, "x": 0, "y": 0 },
					{ "time": 0.3, "x": -13.81, "y": -23.37 },
					{ "time": 0.4, "x": 0, "y": 0 },
					{ "time": 0.4333, "x": -13.81, "y": -23.37 },
					{ "time": 0.5333, "x": 0, "y": 0 },
					{ "time": 0.5667, "x": -13.81, "y": -23.37 },
					{ "time": 0.6667, "x": 0, "y": 0 }
				],
				"scale": [
					{ "time": 0, "x": 1, "y": 1, "curve": "stepped" },
					{ "time": 0.1333, "x": 1, "y": 1, "curve": "stepped" },
					{ "time": 0.2667, "x": 1, "y": 1, "curve": "stepped" },
					{ "time": 0.4, "x": 1, "y": 1, "curve": "stepped" },
					{ "time": 0.5333, "x": 1, "y": 1, "curve": "stepped" },
					{ "time": 0.6667, "x": 1, "y": 1 }
				]
			}
		},
		"drawOrder": [
			{ "time": 0 },
			{ "time": 0.6667 }
		]
	}
}
}