{
"skeleton": { "hash": "dfOXwib9qc7oLTsULUCkx9ANmUo", "spine": "3.7.94", "width": 49.39, "height": 202.95, "images": "", "audio": "" },
"bones": [
	{ "name": "root" },
	{ "name": "scale", "parent": "root", "scaleX": 0.2, "scaleY": 0.2 },
	{ "name": "bone", "parent": "scale" },
	{ "name": "1", "parent": "bone", "length": 40.47, "rotation": 90, "x": -0.13, "y": 3.73 },
	{ "name": "2", "parent": "1", "length": 57.62, "rotation": -0.08, "x": 40.74, "y": 0.17 },
	{ "name": "3", "parent": "2", "length": 61.22, "rotation": -0.08, "x": 57.01, "y": 0.11 },
	{ "name": "4", "parent": "3", "length": 57.69, "rotation": 0.54, "x": 60.76, "y": -0.19 },
	{ "name": "5", "parent": "4", "length": 55.31, "rotation": -0.38, "x": 57.57, "y": 0.13 },
	{ "name": "6", "parent": "5", "length": 56.52, "rotation": 0.38, "x": 56.45, "y": -0.1 },
	{ "name": "7", "parent": "6", "length": 56.27, "rotation": -0.58, "x": 56.93, "y": 0.16 },
	{ "name": "8", "parent": "7", "length": 59.2, "rotation": 0.55, "x": 56.45, "y": -0.2 },
	{ "name": "9", "parent": "8", "length": 59.34, "rotation": -0.65, "x": 59.4, "y": 0.25 },
	{ "name": "10", "parent": "9", "length": 57.72, "rotation": 0.05, "x": 59.24, "y": -0.01 },
	{ "name": "11", "parent": "10", "length": 58.06, "rotation": 0.25, "x": 57.56, "y": -0.05 },
	{ "name": "12", "parent": "11", "length": 58.17, "rotation": -0.01, "x": 58.19, "y": 0.02 },
	{ "name": "13", "parent": "12", "length": 58.67, "rotation": 0.26, "x": 57.98, "y": -0.24 },
	{ "name": "14", "parent": "13", "length": 58.14, "rotation": -0.3, "x": 58.61, "y": -0.12 },
	{ "name": "15", "parent": "14", "length": 69.71, "rotation": 0.69, "x": 58.03, "y": 0.01 }
],
"slots": [
	{ "name": "15", "bone": "15", "attachment": "2" },
	{ "name": "14", "bone": "14", "attachment": "2" },
	{ "name": "13", "bone": "13", "attachment": "2" },
	{ "name": "12", "bone": "12", "attachment": "2" },
	{ "name": "11", "bone": "11", "attachment": "2" },
	{ "name": "10", "bone": "10", "attachment": "2" },
	{ "name": "9", "bone": "9", "attachment": "2" },
	{ "name": "8", "bone": "8", "attachment": "2" },
	{ "name": "7", "bone": "7", "attachment": "2" },
	{ "name": "6", "bone": "6", "attachment": "2" },
	{ "name": "5", "bone": "5", "attachment": "2" },
	{ "name": "4", "bone": "4", "attachment": "2" },
	{ "name": "3", "bone": "3", "attachment": "2" },
	{ "name": "2", "bone": "2", "attachment": "2" },
	{ "name": "1", "bone": "1", "attachment": "1" },
	{ "name": "a", "bone": "bone", "attachment": "a" }
],
"path": [
	{
		"name": "a",
		"order": 0,
		"bones": [ "1", "2", "3", "4", "5", "6", "7", "8", "9", "10", "11", "12", "13", "14", "15" ],
		"target": "a",
		"rotateMode": "chainScale"
	}
],
"skins": {
	"default": {
		"1": {
			"1": { "x": -12.32, "y": -0.5, "rotation": -90, "width": 246, "height": 269 }
		},
		"10": {
			"2": { "x": 29.88, "y": -1.55, "rotation": -89.75, "width": 71, "height": 90 }
		},
		"11": {
			"2": { "x": 29.06, "y": -1.37, "rotation": -89.99, "width": 71, "height": 90 }
		},
		"12": {
			"2": { "x": 28.59, "y": -1.38, "rotation": -89.98, "width": 71, "height": 90 }
		},
		"13": {
			"2": { "x": 29.26, "y": -1.24, "rotation": -90.24, "width": 71, "height": 90 }
		},
		"14": {
			"2": { "x": 28.43, "y": -1.21, "rotation": -89.94, "width": 71, "height": 90 }
		},
		"15": {
			"2": { "x": 27.5, "y": -1.5, "rotation": -90.63, "width": 71, "height": 90 }
		},
		"2": {
			"2": { "x": 34.46, "y": -1.15, "rotation": -89.92, "width": 71, "height": 90 }
		},
		"3": {
			"2": { "x": 32.95, "y": -1.14, "rotation": -89.84, "width": 71, "height": 90 }
		},
		"4": {
			"2": { "x": 30.09, "y": -1.07, "rotation": -90.37, "width": 71, "height": 90 }
		},
		"5": {
			"2": { "x": 28.98, "y": -1.37, "rotation": -90, "width": 71, "height": 90 }
		},
		"6": {
			"2": { "x": 29.3, "y": -1.46, "rotation": -90.37, "width": 71, "height": 90 }
		},
		"7": {
			"2": { "x": 28.84, "y": -1.7, "rotation": -89.79, "width": 71, "height": 90 }
		},
		"8": {
			"2": { "x": 31.85, "y": -1.59, "rotation": -90.35, "width": 71, "height": 90 }
		},
		"9": {
			"2": { "x": 31.88, "y": -1.84, "rotation": -89.69, "width": 71, "height": 90 }
		},
		"a": {
			"a": {
				"type": "path",
				"lengths": [ 13.58, 35.24, 58.1, 92.5, 115.57, 139.59, 173.02, 353.25 ],
				"vertexCount": 24,
				"vertices": [ 0.08, -32.32, -0.13, 3.73, -0.18, 11.82, -0.26, 36.08, -0.35, 71.63, -0.42, 100.97, -0.5, 138, -0.58, 179.95, -0.65, 215.11, -0.72, 253.74, -0.79, 294.21, -0.88, 349.49, -0.96, 408.21, -1.02, 466.24, -1.07, 505.43, -1.1, 544.3, -1.12, 581.58, -1.14, 624.35, -1.15, 665.03, -1.13, 701.69, -1.1, 788.27, -0.93, 852.43, -0.57, 868.83, 0.58, 920.22 ]
			}
		}
	}
},
"animations": {
	"1": {
		"deform": {
			"default": {
				"a": {
					"a": [
						{
							"time": 0,
							"offset": 12,
							"vertices": [ -50.05807, 28.64296, -50.05807, 28.64296, -50.05807, 28.64296, 57.39199, 56.39099, 57.39199, 56.39099, 57.39199, 56.39099, -47.92074, 27.99963, -46.06393, 27.97189, -44.16195, 48.89401 ]
						}
					]
				}
			}
		}
	},
	"anim": {
		"deform": {
			"default": {
				"a": {
					"a": [
						{
							"time": 0,
							"offset": 12,
							"vertices": [ -50.05807, 28.64296, -50.05807, 28.64296, -50.05807, 28.64296, 57.39199, 56.39099, 57.39199, 56.39099, 57.39199, 56.39099, -47.92074, 27.99963, -46.06393, 27.97189, -44.16195, 48.89401 ]
						},
						{
							"time": 0.3333,
							"offset": 12,
							"vertices": [ 1.85698, -27.34246, 4.89297, -15.19846, -2.69699, -6.84945, -38.863, -63.37701, -37.85799, -32.89198, -21.44301, -23.51196, 9.2131, -93.88284, 29.18304, -82.745, 13.18063, -60.97958, 11.52992, -95.02057, -18.76001, -89.77997, -22.36465, -73.34094, 38.52598, -127.63503, 28.47599, 0, 25.48452, -0.08801 ]
						},
						{
							"time": 0.6667,
							"offset": 12,
							"vertices": [ 84.87256, -42.36174, 83.83396, -14.72186, 83.0349, 4.01152, -56.95651, -77.75667, -56.25801, -33.80692, -55.75417, -33.87994, 80.49479, -133.2614, 76.49113, -101.58307, 73.79527, -80.36926, -36.86466, -141.54694, -36.62504, -137.72803, -36.30366, -124.64365, 10.30995, -273.87106, 3.91598, 0, 2.09878, 0.02612 ],
							"curve": "stepped"
						},
						{
							"time": 1,
							"offset": 12,
							"vertices": [ 84.87256, -42.36174, 83.83396, -14.72186, 83.0349, 4.01152, -56.95651, -77.75667, -56.25801, -33.80692, -55.75417, -33.87994, 80.49479, -133.2614, 76.49113, -101.58307, 73.79527, -80.36926, -36.86466, -141.54694, -36.62504, -137.72803, -36.30366, -124.64365, 10.30995, -273.87106, 3.91598, 0, 2.09878, 0.02612 ]
						},
						{ "time": 1.1667 }
					]
				}
			}
		}
	}
}
}