
ship17.png
size: 256,256
format: RGBA8888
filter: Linear,Linear
repeat: none
a1
  rotate: true
  xy: 162, 157
  size: 35, 60
  orig: 35, 60
  offset: 0, 0
  index: -1
body duoi
  rotate: true
  xy: 162, 117
  size: 38, 52
  orig: 38, 52
  offset: 0, 0
  index: -1
body tren
  rotate: false
  xy: 2, 70
  size: 58, 96
  orig: 58, 96
  offset: 0, 0
  index: -1
c1
  rotate: true
  xy: 87, 87
  size: 47, 60
  orig: 47, 60
  offset: 0, 0
  index: -1
canh
  rotate: false
  xy: 234, 216
  size: 18, 37
  orig: 18, 37
  offset: 0, 0
  index: -1
canh duoi
  rotate: true
  xy: 158, 194
  size: 59, 74
  orig: 59, 74
  offset: 0, 0
  index: -1
canh giua
  rotate: true
  xy: 2, 2
  size: 66, 65
  orig: 66, 65
  offset: 0, 0
  index: -1
canh tren
  rotate: true
  xy: 88, 136
  size: 47, 72
  orig: 47, 72
  offset: 0, 0
  index: -1
fx canh duoi
  rotate: false
  xy: 2, 168
  size: 84, 85
  orig: 84, 85
  offset: 0, 0
  index: -1
fx canh tren
  rotate: false
  xy: 88, 185
  size: 68, 68
  orig: 68, 68
  offset: 0, 0
  index: -1
s1
  rotate: false
  xy: 62, 84
  size: 23, 82
  orig: 23, 82
  offset: 0, 0
  index: -1
tam canh
  rotate: false
  xy: 224, 162
  size: 30, 30
  orig: 30, 30
  offset: 0, 0
  index: -1
