
9_diamondship.png
size: 216,216
format: RGBA8888
filter: Linear,Linear
repeat: none
1
  rotate: false
  xy: 104, 21
  size: 41, 41
  orig: 41, 41
  offset: 0, 0
  index: -1
2
  rotate: false
  xy: 115, 108
  size: 49, 106
  orig: 49, 106
  offset: 0, 0
  index: -1
3
  rotate: false
  xy: 166, 119
  size: 46, 95
  orig: 46, 95
  offset: 0, 0
  index: -1
4
  rotate: false
  xy: 2, 15
  size: 100, 94
  orig: 100, 94
  offset: 0, 0
  index: -1
5
  rotate: false
  xy: 2, 111
  size: 111, 103
  orig: 111, 103
  offset: 0, 0
  index: -1
6
  rotate: true
  xy: 147, 25
  size: 37, 32
  orig: 37, 32
  offset: 0, 0
  index: -1
7
  rotate: false
  xy: 104, 64
  size: 57, 42
  orig: 57, 42
  offset: 0, 0
  index: -1
m
  rotate: true
  xy: 2, 2
  size: 11, 28
  orig: 11, 28
  offset: 0, 0
  index: -1
xxx
  rotate: false
  xy: 166, 90
  size: 27, 27
  orig: 27, 27
  offset: 0, 0
  index: -1
